[
    {
        "name": "Almacen Norte",
        "id": 1,
        "address": "Juriquilla Towers, Queretaro",
        "coordinates": {
            "longitude": -116.166868,
            "latitude": 34.011286
        },
        "imageName": "turtlerock"
    },
    {
        "name": "Almacen Sur",
        "id": 2,
        "address": "Centro Sur, Queretaro",
        "coordinates": {
            "longitude": -152.665167,
            "latitude": 59.980167
        },
        "imageName": "silversalmoncreek"
    },
    {
        "name": "Almacen Centro",
        "id": 3,
        "address": "5 de Mayo, Queretaro",
        "coordinates": {
            "longitude": -135.334571,
            "latitude": 59.560551
        },
        "imageName": "chilkoottrail"
    }
]
